{
  "cordova-plugin-whitelist": {
    "source": {
      "type": "registry",
      "id": "cordova-plugin-whitelist@1"
    },
    "is_top_level": true,
    "variables": {}
  },
  "cordova-plugin-device": {
    "source": {
      "type": "registry",
      "id": "cordova-plugin-device"
    },
    "is_top_level": true,
    "variables": {}
  },
  "cordova-plugin-fcm": {
    "source": {
      "type": "registry",
      "id": "cordova-plugin-fcm"
    },
    "is_top_level": true,
    "variables": {}
  },
  "cordova-plugin-network-information": {
    "source": {
      "type": "registry",
      "id": "cordova-plugin-network-information"
    },
    "is_top_level": true,
    "variables": {}
  },
  "cordova-plugin-tts": {
    "source": {
      "type": "registry",
      "id": "cordova-plugin-tts"
    },
    "is_top_level": true,
    "variables": {}
  },
  "cordova-sqlite-storage": {
    "source": {
      "type": "registry",
      "id": "cordova-sqlite-storage"
    },
    "is_top_level": true,
    "variables": {}
  }
}